//
     //
     #
     ###
     
#
##
  
  # test
//    comment
main 
var a,b,c,i,j ;
array[10] arr;
{
  let i <- 0;
  while i < 10 do
    let i <- i + 1;
    call OutputNum(i);
    call OutputNewLine()  
  od;
  
  let i <- 0;
  while i < 10 do
  	let i <- i + 1;
  	call OutputNum(i);
  	let j <- 0;
  	while j < 10 do
  		let j <- j + 1;
  		call OutputNum(i*j)
  	od;
  	call OutputNewLine() 
  od;
  
  let i <- 0;
  let j <- 0;
  while i < 10 do
  	let i <- i + 1;
  	call OutputNum(i);
  	let j <- 0;
  	while j < 10 do
  		let j <- j + 1;
  		if i == j then
  		  call OutputNum(i*j);
  		  call OutputNum(i*j*i)
  		fi
  	od;
  	call OutputNewLine() 
  od;
  
  let i <- 0;
  while i < 10 do
  	let arr[i] <- i + 50;
    let i <- i + 1  
  od;
  
  let i <- 0;
  while i < 10 do
    call OutputNum(arr[i]);
    call OutputNewLine();
    let i <- i + 1
  od
  
}.