main
  var a, b, i, j;
  array[6] x;
  
{
  let i <- call InputNum();
  let x[i] <- call InputNum();
  let a <- i + 1;
  let b <- a + x[i]; 
  if a > 0 then
    let b <- b + 1;
    let x[i] <- a
  fi;
  let b <- b + x[i];   
  let a <- a + x[i];
  call OutputNum(b);
  call OutputNum(a)
}.