digraph struct {

subgraph cluster_main { label = "main";
 node [margin=0.75 shape=record]
block0[label ="{<i1>\{0\} 1 READ    -» VR4 \l|<i4>\{0\} 4 SUB GP #56  -» VR3 \l|<i5>\{0\} 5 MUL VR4 #-4  -» VR2 \l|<i6>\{0\} 6 ADDA VR2 VR3  -» VR3 \l|<i7>\{0\} 7 READ    -» VR2 anchor:1\l|<i8>\{0\} 8 STORE VR2 VR3 (x)\l|<i9>\{0\} 9 ADD VR4 #1  -» VR2 \l|<i15>\{0\} 15 LOAD VR3.VR0   -» VR3 (x)anchor:8\l|<i16>\{0\} 16 ADD VR2 VR3  -» VR4 anchor:9\l|<i19>\{0\} 19 CMP VR2 #0  -» VR2 \l|<i20>\{0\} 20 BLE VR2 25  -» VR0 \l}"]

block1[label ="{<i25>\{1\} 25 NOP    -» VR0 \l|<i23>\{1\} 23 PHI VR1 VR4  -» VR4  (b)\l|<i30>\{1\} 30 ADD VR4 VR3  -» VR1 anchor:16\l|<i38>\{1\} 38 WRITE VR1   -» VR0 \l|<i39>\{1\} 39 END    -» VR0 \l}"]

block2[label ="{<i21>\{2\} 21 ADD VR4 #1  -» VR1 anchor:16\l|<i24>\{2\} 24 BRA 25   -» VR0 \l}"]


edge [color=green];

block1 -> block0
block2 -> block0

edge [color=blue];

block2 -> block1

edge [color=black];

block0 -> block2
block2 -> block1
block0 -> block1

}

}
