digraph struct {

subgraph cluster_main { label = "main";
 node [margin=0.75 shape=record]
block0[label ="{<i1>\{0\} 1 READ    -» R4 \l|<i4>\{0\} 4 SUB GP #56  -» R3 \l|<i5>\{0\} 5 MUL R4 #-4  -» R2 \l|<i6>\{0\} 6 ADDA R2 R3  -» R3 \l|<i7>\{0\} 7 READ    -» R2 anchor:1\l|<i8>\{0\} 8 STORE R2 R3 (x)\l|<i9>\{0\} 9 ADD R4 #1  -» R2 \l|<i15>\{0\} 15 LOAD R3.R0   -» R3 (x)anchor:8\l|<i16>\{0\} 16 ADD R2 R3  -» R4 anchor:9\l|<i19>\{0\} 19 CMP R2 #0  -» R2 \l|<i20>\{0\} 20 BLE R2 25 \l}"]

block1[label ="{<i25>\{1\} 25 NOP   \l|<i30>\{1\} 30 ADD R4 R3  -» R1 anchor:16\l|<i38>\{1\} 38 WRITE R1  \l|<i39>\{1\} 39 END   \l}"]

block2[label ="{<i21>\{2\} 21 ADD R4 #1  -» R1 anchor:16\l|<i40>\{2\} 40 MOVE R1 R4  -» R4 \l|<i24>\{2\} 24 BRA 25  \l}"]


edge [color=green];

block1 -> block0
block2 -> block0

edge [color=blue];

block2 -> block1

edge [color=black];

block0 -> block2
block2 -> block1
block0 -> block1

}

}
